[

  {
    "question": "Inside which HTML element do we put the JavaScript?",
    "answers": [" <javascript>", " < HTML>", " <script> ", " <js>"],
    "correctAnswer":2

  },

  {
    "question": "Where is the correct place to insert a JavaScript?",
    "answers": [" <javascript>", " < HTML>", " <script> ", " <js>"],
    "correctAnswer":2



  },

  {
    "question": "Inside which HTML element do we put the JavaScript?",
    "answers": [" <javascript>", " < HTML>", " <script> ", " <js>"],
    "correctAnswer":2


  },

  {
    "question": "Inside which HTML element do we put the JavaScript?",
    "answers": [" <javascript>", " < HTML>", " <script> ", " <js>"],
    "correctAnswer":2


  },

  {
    "question": "Inside which HTML element do we put the JavaScript?",
    "answers": [" <javascript>", " < HTML>", " <script> ", " <js>"],
    "correctAnswer":2


  },

  {
    "question": "Inside which HTML element do we put the JavaScript?",
    "answers": [" <javascript>", " < HTML>", " <script> ", " <js>"],
    "correctAnswer":2


  }

]
